sw/simulator/rom.vcd
$date
    Wed Oct  5 11:28:57 2022
$end
$version
    MyHDL 0.11
$end
$timescale
    1ns
$end

$scope module rom $end
$var reg 18 ! instruction $end
$var reg 16 " inMem $end
$var reg 16 # outMem $end
$var reg 15 $ pcount $end
$var reg 15 % addressM $end
$var reg 1 & writeM $end
$var reg 1 ' clk $end
$var reg 1 ( clkMem $end
$var reg 1 ) rst $end
$scope module cpu0 $end
$var reg 1 ) rst $end
$var reg 15 % addressM $end
$var reg 1 ' clk $end
$var reg 16 " inMem $end
$var reg 18 ! instruction $end
$var reg 16 # outMem $end
$var reg 1 * pc_load $end
$var reg 15 $ pcount $end
$var reg 16 + reg_a $end
$var reg 16 , reg_d $end
$var reg 6 - ula_ctr $end
$var reg 1 . ula_ng $end
$var reg 16 / ula_out $end
$var reg 16 0 ula_x $end
$var reg 16 1 ula_y $end
$var reg 1 2 ula_zr $end
$var reg 1 & writeM $end
$scope module ula0 $end
$var reg 16 0 x $end
$var reg 16 1 y $end
$var reg 6 - c $end
$var reg 1 2 zr $end
$var reg 1 . ng $end
$var reg 16 3 zx_out $end
$var reg 16 4 zy_out $end
$var reg 16 5 and_out $end
$var reg 1 6 c_zx $end
$var reg 1 7 c_nx $end
$var reg 1 8 c_zy $end
$var reg 1 9 c_ny $end
$var reg 1 : c_no $end
$var reg 16 ; add_out $end
$var reg 1 < c_f $end
$var reg 16 = mux_out $end
$var reg 16 > no_out $end
$var reg 16 ? nx_out $end
$var reg 16 @ ny_out $end
$var reg 16 / saida $end
$scope module zerador0 $end
$var reg 16 0 a $end
$var reg 16 3 y $end
$var reg 1 6 z $end
$upscope $end
$scope module inversor0 $end
$var reg 16 3 a $end
$var reg 16 ? y $end
$var reg 1 7 z $end
$upscope $end
$scope module zerador1 $end
$var reg 16 1 a $end
$var reg 16 4 y $end
$var reg 1 8 z $end
$upscope $end
$scope module inversor1 $end
$var reg 16 4 a $end
$var reg 16 @ y $end
$var reg 1 9 z $end
$upscope $end
$scope module add160 $end
$var reg 16 ? a $end
$var reg 16 @ b $end
$var reg 16 A out_q $end
$var reg 16 ; q $end
$scope module _a $end
$var reg 1 B _a(0) $end
$var reg 1 C _a(1) $end
$var reg 1 D _a(2) $end
$var reg 1 E _a(3) $end
$var reg 1 F _a(4) $end
$var reg 1 G _a(5) $end
$var reg 1 H _a(6) $end
$var reg 1 I _a(7) $end
$var reg 1 J _a(8) $end
$var reg 1 K _a(9) $end
$var reg 1 L _a(10) $end
$var reg 1 M _a(11) $end
$var reg 1 N _a(12) $end
$var reg 1 O _a(13) $end
$var reg 1 P _a(14) $end
$var reg 1 Q _a(15) $end
$upscope $end
$scope module _b $end
$var reg 1 R _b(0) $end
$var reg 1 S _b(1) $end
$var reg 1 T _b(2) $end
$var reg 1 U _b(3) $end
$var reg 1 V _b(4) $end
$var reg 1 W _b(5) $end
$var reg 1 X _b(6) $end
$var reg 1 Y _b(7) $end
$var reg 1 Z _b(8) $end
$var reg 1 [ _b(9) $end
$var reg 1 \ _b(10) $end
$var reg 1 ] _b(11) $end
$var reg 1 ^ _b(12) $end
$var reg 1 _ _b(13) $end
$var reg 1 ` _b(14) $end
$var reg 1 a _b(15) $end
$upscope $end
$scope module _c $end
$var reg 1 b _c(0) $end
$var reg 1 c _c(1) $end
$var reg 1 d _c(2) $end
$var reg 1 e _c(3) $end
$var reg 1 f _c(4) $end
$var reg 1 g _c(5) $end
$var reg 1 h _c(6) $end
$var reg 1 i _c(7) $end
$var reg 1 j _c(8) $end
$var reg 1 k _c(9) $end
$var reg 1 l _c(10) $end
$var reg 1 m _c(11) $end
$var reg 1 n _c(12) $end
$var reg 1 o _c(13) $end
$var reg 1 p _c(14) $end
$var reg 1 q _c(15) $end
$var reg 1 r _c(16) $end
$upscope $end
$scope module _q $end
$var reg 1 s _q(0) $end
$var reg 1 t _q(1) $end
$var reg 1 u _q(2) $end
$var reg 1 v _q(3) $end
$var reg 1 w _q(4) $end
$var reg 1 x _q(5) $end
$var reg 1 y _q(6) $end
$var reg 1 z _q(7) $end
$var reg 1 { _q(8) $end
$var reg 1 | _q(9) $end
$var reg 1 } _q(10) $end
$var reg 1 ~ _q(11) $end
$var reg 1 "! _q(12) $end
$var reg 1 "" _q(13) $end
$var reg 1 "# _q(14) $end
$var reg 1 "$ _q(15) $end
$upscope $end
$scope module fullAdder0 $end
$var reg 1 B a $end
$var reg 1 R b $end
$var reg 1 b c $end
$var reg 1 s q $end
$var reg 1 "% s1 $end
$var reg 1 c carry $end
$var reg 1 "& s2 $end
$var reg 1 "' s3 $end
$scope module halfAdder0 $end
$var reg 1 B a $end
$var reg 1 R b $end
$var reg 1 "& carry $end
$var reg 1 "% q $end
$upscope $end
$scope module halfAdder1 $end
$var reg 1 b a $end
$var reg 1 "% b $end
$var reg 1 "' carry $end
$var reg 1 s q $end
$upscope $end
$upscope $end
$scope module fullAdder1 $end
$var reg 1 C a $end
$var reg 1 S b $end
$var reg 1 c c $end
$var reg 1 t q $end
$var reg 1 "( s1 $end
$var reg 1 d carry $end
$var reg 1 ") s2 $end
$var reg 1 "* s3 $end
$scope module halfAdder2 $end
$var reg 1 C a $end
$var reg 1 S b $end
$var reg 1 ") carry $end
$var reg 1 "( q $end
$upscope $end
$scope module halfAdder3 $end
$var reg 1 c a $end
$var reg 1 "( b $end
$var reg 1 "* carry $end
$var reg 1 t q $end
$upscope $end
$upscope $end
$scope module fullAdder2 $end
$var reg 1 D a $end
$var reg 1 T b $end
$var reg 1 d c $end
$var reg 1 u q $end
$var reg 1 "+ s1 $end
$var reg 1 e carry $end
$var reg 1 ", s2 $end
$var reg 1 "- s3 $end
$scope module halfAdder4 $end
$var reg 1 D a $end
$var reg 1 T b $end
$var reg 1 ", carry $end
$var reg 1 "+ q $end
$upscope $end
$scope module halfAdder5 $end
$var reg 1 d a $end
$var reg 1 "+ b $end
$var reg 1 "- carry $end
$var reg 1 u q $end
$upscope $end
$upscope $end
$scope module fullAdder3 $end
$var reg 1 E a $end
$var reg 1 U b $end
$var reg 1 e c $end
$var reg 1 v q $end
$var reg 1 ". s1 $end
$var reg 1 f carry $end
$var reg 1 "/ s2 $end
$var reg 1 "0 s3 $end
$scope module halfAdder6 $end
$var reg 1 E a $end
$var reg 1 U b $end
$var reg 1 "/ carry $end
$var reg 1 ". q $end
$upscope $end
$scope module halfAdder7 $end
$var reg 1 e a $end
$var reg 1 ". b $end
$var reg 1 "0 carry $end
$var reg 1 v q $end
$upscope $end
$upscope $end
$scope module fullAdder4 $end
$var reg 1 F a $end
$var reg 1 V b $end
$var reg 1 f c $end
$var reg 1 w q $end
$var reg 1 "1 s1 $end
$var reg 1 g carry $end
$var reg 1 "2 s2 $end
$var reg 1 "3 s3 $end
$scope module halfAdder8 $end
$var reg 1 F a $end
$var reg 1 V b $end
$var reg 1 "2 carry $end
$var reg 1 "1 q $end
$upscope $end
$scope module halfAdder9 $end
$var reg 1 f a $end
$var reg 1 "1 b $end
$var reg 1 "3 carry $end
$var reg 1 w q $end
$upscope $end
$upscope $end
$scope module fullAdder5 $end
$var reg 1 G a $end
$var reg 1 W b $end
$var reg 1 g c $end
$var reg 1 x q $end
$var reg 1 "4 s1 $end
$var reg 1 h carry $end
$var reg 1 "5 s2 $end
$var reg 1 "6 s3 $end
$scope module halfAdder10 $end
$var reg 1 G a $end
$var reg 1 W b $end
$var reg 1 "5 carry $end
$var reg 1 "4 q $end
$upscope $end
$scope module halfAdder11 $end
$var reg 1 g a $end
$var reg 1 "4 b $end
$var reg 1 "6 carry $end
$var reg 1 x q $end
$upscope $end
$upscope $end
$scope module fullAdder6 $end
$var reg 1 H a $end
$var reg 1 X b $end
$var reg 1 h c $end
$var reg 1 y q $end
$var reg 1 "7 s1 $end
$var reg 1 i carry $end
$var reg 1 "8 s2 $end
$var reg 1 "9 s3 $end
$scope module halfAdder12 $end
$var reg 1 H a $end
$var reg 1 X b $end
$var reg 1 "8 carry $end
$var reg 1 "7 q $end
$upscope $end
$scope module halfAdder13 $end
$var reg 1 h a $end
$var reg 1 "7 b $end
$var reg 1 "9 carry $end
$var reg 1 y q $end
$upscope $end
$upscope $end
$scope module fullAdder7 $end
$var reg 1 I a $end
$var reg 1 Y b $end
$var reg 1 i c $end
$var reg 1 z q $end
$var reg 1 ": s1 $end
$var reg 1 j carry $end
$var reg 1 "; s2 $end
$var reg 1 "< s3 $end
$scope module halfAdder14 $end
$var reg 1 I a $end
$var reg 1 Y b $end
$var reg 1 "; carry $end
$var reg 1 ": q $end
$upscope $end
$scope module halfAdder15 $end
$var reg 1 i a $end
$var reg 1 ": b $end
$var reg 1 "< carry $end
$var reg 1 z q $end
$upscope $end
$upscope $end
$scope module fullAdder8 $end
$var reg 1 J a $end
$var reg 1 Z b $end
$var reg 1 j c $end
$var reg 1 { q $end
$var reg 1 "= s1 $end
$var reg 1 k carry $end
$var reg 1 "> s2 $end
$var reg 1 "? s3 $end
$scope module halfAdder16 $end
$var reg 1 J a $end
$var reg 1 Z b $end
$var reg 1 "> carry $end
$var reg 1 "= q $end
$upscope $end
$scope module halfAdder17 $end
$var reg 1 j a $end
$var reg 1 "= b $end
$var reg 1 "? carry $end
$var reg 1 { q $end
$upscope $end
$upscope $end
$scope module fullAdder9 $end
$var reg 1 K a $end
$var reg 1 [ b $end
$var reg 1 k c $end
$var reg 1 | q $end
$var reg 1 "@ s1 $end
$var reg 1 l carry $end
$var reg 1 "A s2 $end
$var reg 1 "B s3 $end
$scope module halfAdder18 $end
$var reg 1 K a $end
$var reg 1 [ b $end
$var reg 1 "A carry $end
$var reg 1 "@ q $end
$upscope $end
$scope module halfAdder19 $end
$var reg 1 k a $end
$var reg 1 "@ b $end
$var reg 1 "B carry $end
$var reg 1 | q $end
$upscope $end
$upscope $end
$scope module fullAdder10 $end
$var reg 1 L a $end
$var reg 1 \ b $end
$var reg 1 l c $end
$var reg 1 } q $end
$var reg 1 "C s1 $end
$var reg 1 m carry $end
$var reg 1 "D s2 $end
$var reg 1 "E s3 $end
$scope module halfAdder20 $end
$var reg 1 L a $end
$var reg 1 \ b $end
$var reg 1 "D carry $end
$var reg 1 "C q $end
$upscope $end
$scope module halfAdder21 $end
$var reg 1 l a $end
$var reg 1 "C b $end
$var reg 1 "E carry $end
$var reg 1 } q $end
$upscope $end
$upscope $end
$scope module fullAdder11 $end
$var reg 1 M a $end
$var reg 1 ] b $end
$var reg 1 m c $end
$var reg 1 ~ q $end
$var reg 1 "F s1 $end
$var reg 1 n carry $end
$var reg 1 "G s2 $end
$var reg 1 "H s3 $end
$scope module halfAdder22 $end
$var reg 1 M a $end
$var reg 1 ] b $end
$var reg 1 "G carry $end
$var reg 1 "F q $end
$upscope $end
$scope module halfAdder23 $end
$var reg 1 m a $end
$var reg 1 "F b $end
$var reg 1 "H carry $end
$var reg 1 ~ q $end
$upscope $end
$upscope $end
$scope module fullAdder12 $end
$var reg 1 N a $end
$var reg 1 ^ b $end
$var reg 1 n c $end
$var reg 1 "! q $end
$var reg 1 "I s1 $end
$var reg 1 o carry $end
$var reg 1 "J s2 $end
$var reg 1 "K s3 $end
$scope module halfAdder24 $end
$var reg 1 N a $end
$var reg 1 ^ b $end
$var reg 1 "J carry $end
$var reg 1 "I q $end
$upscope $end
$scope module halfAdder25 $end
$var reg 1 n a $end
$var reg 1 "I b $end
$var reg 1 "K carry $end
$var reg 1 "! q $end
$upscope $end
$upscope $end
$scope module fullAdder13 $end
$var reg 1 O a $end
$var reg 1 _ b $end
$var reg 1 o c $end
$var reg 1 "" q $end
$var reg 1 "L s1 $end
$var reg 1 p carry $end
$var reg 1 "M s2 $end
$var reg 1 "N s3 $end
$scope module halfAdder26 $end
$var reg 1 O a $end
$var reg 1 _ b $end
$var reg 1 "M carry $end
$var reg 1 "L q $end
$upscope $end
$scope module halfAdder27 $end
$var reg 1 o a $end
$var reg 1 "L b $end
$var reg 1 "N carry $end
$var reg 1 "" q $end
$upscope $end
$upscope $end
$scope module fullAdder14 $end
$var reg 1 P a $end
$var reg 1 ` b $end
$var reg 1 p c $end
$var reg 1 "# q $end
$var reg 1 "O s1 $end
$var reg 1 q carry $end
$var reg 1 "P s2 $end
$var reg 1 "Q s3 $end
$scope module halfAdder28 $end
$var reg 1 P a $end
$var reg 1 ` b $end
$var reg 1 "P carry $end
$var reg 1 "O q $end
$upscope $end
$scope module halfAdder29 $end
$var reg 1 p a $end
$var reg 1 "O b $end
$var reg 1 "Q carry $end
$var reg 1 "# q $end
$upscope $end
$upscope $end
$scope module fullAdder15 $end
$var reg 1 Q a $end
$var reg 1 a b $end
$var reg 1 q c $end
$var reg 1 "$ q $end
$var reg 1 "R s1 $end
$var reg 1 r carry $end
$var reg 1 "S s2 $end
$var reg 1 "T s3 $end
$scope module halfAdder30 $end
$var reg 1 Q a $end
$var reg 1 a b $end
$var reg 1 "S carry $end
$var reg 1 "R q $end
$upscope $end
$scope module halfAdder31 $end
$var reg 1 q a $end
$var reg 1 "R b $end
$var reg 1 "T carry $end
$var reg 1 "$ q $end
$upscope $end
$upscope $end
$upscope $end
$scope module inversor2 $end
$var reg 16 = a $end
$var reg 16 > y $end
$var reg 1 : z $end
$upscope $end
$scope module comparador0 $end
$var reg 16 > a $end
$var reg 1 . ng $end
$var reg 1 2 zr $end
$upscope $end
$upscope $end
$scope module pc0 $end
$var reg 1 ) rst $end
$var reg 1 ' clk $end
$var reg 16 + i $end
$var reg 1 * load $end
$var reg 15 $ output $end
$upscope $end
$upscope $end
$scope module ram_sim0 $end
$var reg 1 ( clk $end
$var reg 15 % addr $end
$var reg 16 # din $end
$var reg 16 " dout $end
$var reg 1 & we $end
$upscope $end
$scope module rom_sim0 $end
$var reg 1 ' clk $end
$var reg 15 $ addr $end
$var reg 18 ! dout $end
$upscope $end
$upscope $end

$enddefinitions $end
$dumpvars
b000000000000000000 !
b0000000000000000 "
b0000000000000000 #
b000000000000000 $
b000000000000000 %
0&
0'
0(
0)
0*
b0000000000000000 +
b0000000000000000 ,
b000000 -
0.
b0000000000000000 /
b0000000000000000 0
b0000000000000000 1
02
b0000000000000000 3
b0000000000000000 4
b0000000000000000 5
06
07
08
09
0:
b0000000000000000 ;
0<
b0000000000000000 =
b0000000000000000 >
b0000000000000000 ?
b0000000000000000 @
b0000000000000000 A
0B
0C
0D
0E
0F
0G
0H
0I
0J
0K
0L
0M
0N
0O
0P
0Q
0R
0S
0T
0U
0V
0W
0X
0Y
0Z
0[
0\
0]
0^
0_
0`
0a
0b
0c
0d
0e
0f
0g
0h
0i
0j
0k
0l
0m
0n
0o
0p
0q
0r
0s
0t
0u
0v
0w
0x
0y
0z
0{
0|
0}
0~
0"!
0""
0"#
0"$
0"%
0"&
0"'
0"(
0")
0"*
0"+
0",
0"-
0".
0"/
0"0
0"1
0"2
0"3
0"4
0"5
0"6
0"7
0"8
0"9
0":
0";
0"<
0"=
0">
0"?
0"@
0"A
0"B
0"C
0"D
0"E
0"F
0"G
0"H
0"I
0"J
0"K
0"L
0"M
0"N
0"O
0"P
0"Q
0"R
0"S
0"T
$end
12
#1
1(
#2
0(
1'
b000000000000001 $
b000000000000000001 !
#3
1(
#4
0(
0'
#5
1(
#6
0(
1'
b100011100000010000 !
b0000000000000001 +
b000000000000010 $
b000000000000001 %
b110000 -
16
17
b1111111111111111 ?
1B
1C
1D
1E
1F
1G
1H
1I
1J
1K
1L
1M
1N
1O
1P
1Q
1"R
1"O
1"L
1"I
1"F
1"C
1"@
1"=
1":
1"7
1"4
1"1
1".
1"+
1"(
1"%
1s
1t
1u
1v
1w
1x
1y
1z
1{
1|
1}
1~
1"!
1""
1"#
1"$
b1111111111111111 A
b1111111111111111 ;
#7
1(
b0000001000000000 "
b0000001000000000 1
b0000001000000000 4
b0000001000000000 @
b0000001000000000 =
1[
1"A
0"@
b0000001000000000 >
b0000001000000000 /
02
0|
1l
1"E
0}
b1111110111111111 A
b0000001000000000 #
b1111110111111111 ;
b1111100111111111 A
1m
1"H
0~
b1111100111111111 ;
b1111000111111111 A
1n
1"K
0"!
b1111000111111111 ;
b1110000111111111 A
1o
1"N
0""
b1110000111111111 ;
b1100000111111111 A
1p
1"Q
0"#
b1100000111111111 ;
b1000000111111111 A
1q
1"T
0"$
b1000000111111111 ;
b0000000111111111 A
1r
b0000000111111111 ;
#8
0(
0'
#9
1(
#10
0(
1'
b000000000000011 $
b0000001000000000 ,
b100000000000000000 !
b000000 -
b0000000000000001 1
b0000001000000000 0
b0000000000000001 4
07
06
b0000001000000000 3
b0000000000000000 ?
b0000000000000001 @
b0000000000000000 =
0[
1R
0Q
0P
0O
0N
0M
0L
0K
0J
0I
0H
0G
0F
0E
0D
0C
0B
b0000001000000000 ?
1K
0"(
0"+
0".
0"1
0"4
0"7
0":
0"=
0"A
0"C
0"F
0"I
0"L
0"O
0"R
b0000000000000000 >
b0000000000000000 /
12
0"T
1"$
0"Q
1"#
0"N
1""
0"K
1"!
0"H
1~
0"E
1}
0l
0{
0z
0y
0x
0w
0v
0u
0t
1"@
1|
b1111110000000001 A
0}
0m
0n
0o
0p
0q
0r
b0000000000000000 #
0"$
0"#
0""
0"!
0~
b1111101000000001 A
b1111110000000001 ;
b1111101000000001 ;
b0000001000000001 A
b0000001000000001 ;
#11
1(
#12
0(
0'
#13
1(
#14
0(
1'
b000000000000100 $
#15
1(
#16
0(
0'
#17
1(
#18
0(
1'
b000000000000101 $
#19
1(
#20
0(
0'
#21
1(
#22
0(
1'
b000000000000110 $
#23
1(
#24
0(
0'
#25
1(
#26
0(
1'
b000000000000111 $
#27
1(
#28
0(
0'
#29
1(
#30
0(
1'
b000000000001000 $
#31
1(
#32
0(
0'
#33
1(
#34
0(
1'
b000000000001001 $
#35
1(
#36
0(
0'
#37
1(
#38
0(
1'
b000000000001010 $
#39
1(
#40
0(
0'
#41
1(
#42
0(
1'
b000000000001011 $
#43
1(
#44
0(
0'
#45
1(
#46
0(
1'
b000000000001100 $
#47
1(
#48
0(
0'
#49
1(
#50
0(
1'
b000000000001101 $
#51
1(
#52
0(
0'
#53
1(
#54
0(
1'
b000000000001110 $
#55
1(
#56
0(
0'
#57
1(
#58
0(
1'
b000000000001111 $
#59
1(
#60
0(
0'
#61
1(
#62
0(
1'
b000000000010000 $
#63
1(
#64
0(
0'
#65
1(
#66
0(
1'
b000000000010001 $
#67
1(
#68
0(
0'
#69
1(
#70
0(
1'
b000000000010010 $
#71
1(
#72
0(
0'
#73
1(
#74
0(
1'
b000000000010011 $
#75
1(
#76
0(
0'
#77
1(
#78
0(
1'
b000000000010100 $
#79
1(
#80
0(
0'
#81
1(
#82
0(
1'
b000000000010101 $
#83
1(
#84
0(
0'
#85
1(
#86
0(
1'
b000000000010110 $
#87
1(
#88
0(
0'
#89
1(
#90
0(
1'
b000000000010111 $
#91
1(
#92
0(
0'
#93
1(
#94
0(
1'
b000000000011000 $
#95
1(
#96
0(
0'
#97
1(
#98
0(
1'
b000000000011001 $
#99
1(
#100
0(
0'
#101
1(
#102
0(
1'
b000000000011010 $
#103
1(
#104
0(
0'
#105
1(
#106
0(
1'
b000000000011011 $
#107
1(
#108
0(
0'
#109
1(
#110
0(
1'
b000000000011100 $
#111
1(
#112
0(
0'
#113
1(
#114
0(
1'
b000000000011101 $
#115
1(
#116
0(
0'
#117
1(
#118
0(
1'
b000000000011110 $
#119
1(
#120
0(
0'
#121
1(
#122
0(
1'
b000000000011111 $
#123
1(
#124
0(
0'
#125
1(
#126
0(
1'
b000000000100000 $
#127
1(
#128
0(
0'
#129
1(
#130
0(
1'
b000000000100001 $
#131
1(
#132
0(
0'
#133
1(
#134
0(
1'
b000000000100010 $
#135
1(
#136
0(
0'
#137
1(
#138
0(
1'
b000000000100011 $
#139
1(
#140
0(
0'
#141
1(
#142
0(
1'
b000000000100100 $
#143
1(
#144
0(
0'
#145
1(
#146
0(
1'
b000000000100101 $
#147
1(
#148
0(
0'
#149
1(
#150
0(
1'
b000000000100110 $
#151
1(
#152
0(
0'
#153
1(
#154
0(
1'
b000000000100111 $
#155
1(
#156
0(
0'
#157
1(
#158
0(
1'
b000000000101000 $
#159
1(
#160
0(
0'
#161
1(
#162
0(
1'
b000000000101001 $
#163
1(
#164
0(
0'
#165
1(
#166
0(
1'
b000000000101010 $
#167
1(
#168
0(
0'
#169
1(
#170
0(
1'
b000000000101011 $
#171
1(
#172
0(
0'
#173
1(
#174
0(
1'
b000000000101100 $
#175
1(
#176
0(
0'
#177
1(
#178
0(
1'
b000000000101101 $
#179
1(
#180
0(
0'
#181
1(
#182
0(
1'
b000000000101110 $
#183
1(
#184
0(
0'
#185
1(
#186
0(
1'
b000000000101111 $
#187
1(
#188
0(
0'
#189
1(
#190
0(
1'
b000000000110000 $
#191
1(
#192
0(
0'
#193
1(
#194
0(
1'
b000000000110001 $
#195
1(
#196
0(
0'
#197
1(
#198
0(
1'
b000000000110010 $
#199
1(
#200
0(
0'
#201
1(
#202
0(
1'
b000000000110011 $
#203
1(
#204
0(
0'
#205
1(
#206
0(
1'
b000000000110100 $
#207
1(
#208
0(
0'
#209
1(
#210
0(
1'
b000000000110101 $
#211
1(
#212
0(
0'
#213
1(
#214
0(
1'
b000000000110110 $
#215
1(
#216
0(
0'
#217
1(
#218
0(
1'
b000000000110111 $
#219
1(
#220
0(
0'
#221
1(
#222
0(
1'
b000000000111000 $
#223
1(
#224
0(
0'
#225
1(
#226
0(
1'
b000000000111001 $
#227
1(
#228
0(
0'
#229
1(
#230
0(
1'
b000000000111010 $
#231
1(
#232
0(
0'
#233
1(
#234
0(
1'
b000000000111011 $
#235
1(
#236
0(
0'
#237
1(
#238
0(
1'
b000000000111100 $
#239
1(
#240
0(
0'
#241
1(
#242
0(
1'
b000000000111101 $
#243
1(
#244
0(
0'
#245
1(
#246
0(
1'
b000000000111110 $
#247
1(
#248
0(
0'
#249
1(
#250
0(
1'
b000000000111111 $
#251
1(
#252
0(
0'
#253
1(
#254
0(
1'
b000000001000000 $
#255
1(
#256
0(
0'
#257
1(
#258
0(
1'
b000000001000001 $
#259
1(
#260
0(
0'
#261
1(
#262
0(
1'
b000000001000010 $
#263
1(
#264
0(
0'
#265
1(
#266
0(
1'
b000000001000011 $
#267
1(
#268
0(
0'
#269
1(
#270
0(
1'
b000000001000100 $
#271
1(
#272
0(
0'
#273
1(
#274
0(
1'
b000000001000101 $
#275
1(
#276
0(
0'
#277
1(
#278
0(
1'
b000000001000110 $
#279
1(
#280
0(
0'
#281
1(
#282
0(
1'
b000000001000111 $
#283
1(
#284
0(
0'
#285
1(
#286
0(
1'
b000000001001000 $
#287
1(
#288
0(
0'
#289
1(
#290
0(
1'
b000000001001001 $
#291
1(
#292
0(
0'
#293
1(
#294
0(
1'
b000000001001010 $
#295
1(
#296
0(
0'
#297
1(
#298
0(
1'
b000000001001011 $
#299
1(
#300
0(
0'
#301
1(
#302
0(
1'
b000000001001100 $
#303
1(
#304
0(
0'
#305
1(
#306
0(
1'
b000000001001101 $
#307
1(
#308
0(
0'
#309
1(
#310
0(
1'
b000000001001110 $
#311
1(
#312
0(
0'
#313
1(
#314
0(
1'
b000000001001111 $
#315
1(
#316
0(
0'
#317
1(
#318
0(
1'
b000000001010000 $
#319
1(
#320
0(
0'
#321
1(
#322
0(
1'
b000000001010001 $
#323
1(
#324
0(
0'
#325
1(
#326
0(
1'
b000000001010010 $
#327
1(
#328
0(
0'
#329
1(
#330
0(
1'
b000000001010011 $
#331
1(
#332
0(
0'
#333
1(
#334
0(
1'
b000000001010100 $
#335
1(
#336
0(
0'
#337
1(
#338
0(
1'
b000000001010101 $
#339
1(
#340
0(
0'
#341
1(
#342
0(
1'
b000000001010110 $
#343
1(
#344
0(
0'
#345
1(
#346
0(
1'
b000000001010111 $
#347
1(
#348
0(
0'
#349
1(
#350
0(
1'
b000000001011000 $
#351
1(
#352
0(
0'
#353
1(
#354
0(
1'
b000000001011001 $
#355
1(
#356
0(
0'
#357
1(
#358
0(
1'
b000000001011010 $
#359
1(
#360
0(
0'
#361
1(
#362
0(
1'
b000000001011011 $
#363
1(
#364
0(
0'
#365
1(
#366
0(
1'
b000000001011100 $
#367
1(
#368
0(
0'
#369
1(
#370
0(
1'
b000000001011101 $
#371
1(
#372
0(
0'
#373
1(
#374
0(
1'
b000000001011110 $
#375
1(
#376
0(
0'
#377
1(
#378
0(
1'
b000000001011111 $
#379
1(
#380
0(
0'
#381
1(
#382
0(
1'
b000000001100000 $
#383
1(
#384
0(
0'
#385
1(
#386
0(
1'
b000000001100001 $
#387
1(
#388
0(
0'
#389
1(
#390
0(
1'
b000000001100010 $
#391
1(
#392
0(
0'
#393
1(
#394
0(
1'
b000000001100011 $
#395
1(
#396
0(
0'
#397
1(
#398
0(
1'
b000000001100100 $
#399
1(
#400
0(
0'
#401
1(
#402
0(
1'
b000000001100101 $
#403
1(
#404
0(
0'
#405
1(
#406
0(
1'
b000000001100110 $
#407
1(
#408
0(
0'
#409
1(
#410
0(
1'
b000000001100111 $
#411
1(
#412
0(
0'
#413
1(
#414
0(
1'
b000000001101000 $
#415
1(
#416
0(
0'
#417
1(
#418
0(
1'
b000000001101001 $
#419
1(
#420
0(
0'
#421
1(
#422
0(
1'
b000000001101010 $
#423
1(
#424
0(
0'
#425
1(
#426
0(
1'
b000000001101011 $
#427
1(
#428
0(
0'
#429
1(
#430
0(
1'
b000000001101100 $
#431
1(
#432
0(
0'
#433
1(
#434
0(
1'
b000000001101101 $
#435
1(
#436
0(
0'
#437
1(
#438
0(
1'
b000000001101110 $
#439
1(
#440
0(
0'
#441
1(
#442
0(
1'
b000000001101111 $
#443
1(
#444
0(
0'
#445
1(
#446
0(
1'
b000000001110000 $
#447
1(
#448
0(
0'
#449
1(
#450
0(
1'
b000000001110001 $
#451
1(
#452
0(
0'
#453
1(
#454
0(
1'
b000000001110010 $
#455
1(
#456
0(
0'
#457
1(
#458
0(
1'
b000000001110011 $
#459
1(
#460
0(
0'
#461
1(
#462
0(
1'
b000000001110100 $
#463
1(
#464
0(
0'
#465
1(
#466
0(
1'
b000000001110101 $
#467
1(
#468
0(
0'
#469
1(
#470
0(
1'
b000000001110110 $
#471
1(
#472
0(
0'
#473
1(
#474
0(
1'
b000000001110111 $
#475
1(
#476
0(
0'
#477
1(
#478
0(
1'
b000000001111000 $
#479
1(
#480
0(
0'
#481
1(
#482
0(
1'
b000000001111001 $
#483
1(
#484
0(
0'
#485
1(
#486
0(
1'
b000000001111010 $
#487
1(
#488
0(
0'
#489
1(
#490
0(
1'
b000000001111011 $
#491
1(
#492
0(
0'
#493
1(
#494
0(
1'
b000000001111100 $
#495
1(
#496
0(
0'
#497
1(
#498
0(
1'
b000000001111101 $
#499
1(
#500
0(
0'
#501
1(
#502
0(
1'
b000000001111110 $
#503
1(
#504
0(
0'
#505
1(
#506
0(
1'
b000000001111111 $
#507
1(
#508
0(
0'
#509
1(
#510
0(
1'
b000000010000000 $
#511
1(
#512
0(
0'
#513
1(
#514
0(
1'
b000000010000001 $
#515
1(
#516
0(
0'
#517
1(
#518
0(
1'
b000000010000010 $
#519
1(
#520
0(
0'
#521
1(
#522
0(
1'
b000000010000011 $
#523
1(
#524
0(
0'
#525
1(
#526
0(
1'
b000000010000100 $
#527
1(
#528
0(
0'
#529
1(
#530
0(
1'
b000000010000101 $
#531
1(
#532
0(
0'
#533
1(
#534
0(
1'
b000000010000110 $
#535
1(
#536
0(
0'
#537
1(
#538
0(
1'
b000000010000111 $
#539
1(
#540
0(
0'
#541
1(
#542
0(
1'
b000000010001000 $
#543
1(
#544
0(
0'
#545
1(
#546
0(
1'
b000000010001001 $
#547
1(
#548
0(
0'
#549
1(
#550
0(
1'
b000000010001010 $
#551
1(
#552
0(
0'
#553
1(
#554
0(
1'
b000000010001011 $
#555
1(
#556
0(
0'
#557
1(
#558
0(
1'
b000000010001100 $
#559
1(
#560
0(
0'
#561
1(
#562
0(
1'
b000000010001101 $
#563
1(
#564
0(
0'
#565
1(
#566
0(
1'
b000000010001110 $
#567
1(
#568
0(
0'
#569
1(
#570
0(
1'
b000000010001111 $
#571
1(
#572
0(
0'
#573
1(
#574
0(
1'
b000000010010000 $
#575
1(
#576
0(
0'
#577
1(
#578
0(
1'
b000000010010001 $
#579
1(
#580
0(
0'
#581
1(
#582
0(
1'
b000000010010010 $
#583
1(
#584
0(
0'
#585
1(
#586
0(
1'
b000000010010011 $
#587
1(
#588
0(
0'
#589
1(
#590
0(
1'
b000000010010100 $
#591
1(
#592
0(
0'
#593
1(
#594
0(
1'
b000000010010101 $
#595
1(
#596
0(
0'
#597
1(
#598
0(
1'
b000000010010110 $
#599
1(
#600
0(
0'
#601
1(
#602
0(
1'
b000000010010111 $
#603
1(
#604
0(
0'
#605
1(
#606
0(
1'
b000000010011000 $
#607
1(
#608
0(
0'
#609
1(
#610
0(
1'
b000000010011001 $
#611
1(
#612
0(
0'
#613
1(
#614
0(
1'
b000000010011010 $
#615
1(
#616
0(
0'
#617
1(
#618
0(
1'
b000000010011011 $
#619
1(
#620
0(
0'
#621
1(
#622
0(
1'
b000000010011100 $
#623
1(
#624
0(
0'
#625
1(
#626
0(
1'
b000000010011101 $
#627
1(
#628
0(
0'
#629
1(
#630
0(
1'
b000000010011110 $
#631
1(
#632
0(
0'
#633
1(
#634
0(
1'
b000000010011111 $
#635
1(
#636
0(
0'
#637
1(
#638
0(
1'
b000000010100000 $
#639
1(
#640
0(
0'
#641
1(
#642
0(
1'
b000000010100001 $
#643
1(
#644
0(
0'
#645
1(
#646
0(
1'
b000000010100010 $
#647
1(
#648
0(
0'
#649
1(
#650
0(
1'
b000000010100011 $
#651
1(
#652
0(
0'
#653
1(
#654
0(
1'
b000000010100100 $
#655
1(
